Datum,kmStand,kmTank,Liter,Euro,Brand,bReifenKlein,bFull
10.08.2022,90463,1183,104.6,204,Eni,1,1
09.09.2022,91622,1160,103.2,211,BP,1,1
02.10.2022,92687,1065,54.0,100,Esso,1,0
09.10.2022,93668,618,54.0,100,Eni,1,0
27.10.2022,94255,587,108.0,223,Stiglechner,1,1
17.11.2022,95140,886,84.6,157,Disk,1,1
18.11.2022,95450,310,30.9,58,Shell,1,1
03.12.2022,95779,330,38.5,67,Shell,0,1
26.05.2023,96469,690,71.2,115,BP,0,1
28.05.2023,97507,1038,95.6,160,Nizza,0,1
07.06.2023,98462,954,96.6,178,Eni,0,1
11.06.2023,99469,1000,97.0,162,Aral,0,1
16.09.2023,103281,1110,104.6,162,INA,0,1
06.10.2023,104369,1088,105.7,186,Marcher,0,1